{
  "project_info": {
    "project_number": "585162138896",
    "project_id": "workdo-93551",
    "storage_bucket": "workdo-93551.appspot.com"
  },
  "client": [
    {
      "client_info": {
        "mobilesdk_app_id": "1:585162138896:android:df452fd06634ba8b5d3195",
        "android_client_info": {
          "package_name": "com.workdo.fashion"
        }
      },
      "oauth_client": [
        {
          "client_id": "585162138896-i8ssn6pfcf61msgu2pr3rsk2dnldakh2.apps.googleusercontent.com",
          "client_type": 1,
          "android_info": {
            "package_name": "com.workdo.fashion",
            "certificate_hash": "a6d77c1bb0ed6547f2bb006df727a96e0c2d3c55"
          }
        },
        {
          "client_id": "585162138896-p7123uv01joqhrdmdpkkp616voosejio.apps.googleusercontent.com",
          "client_type": 3
        }
      ],
      "api_key": [
        {
          "current_key": "AIzaSyDHFJXOn3hNxG8k8GyGIRHSJv89EAV1es0"
        }
      ],
      "services": {
        "appinvite_service": {
          "other_platform_oauth_client": [
            {
              "client_id": "585162138896-p7123uv01joqhrdmdpkkp616voosejio.apps.googleusercontent.com",
              "client_type": 3
            },
            {
              "client_id": "585162138896-0s7a2kar4i6jnqdo06b24kfamn1uhrfk.apps.googleusercontent.com",
              "client_type": 2,
              "ios_info": {
                "bundle_id": "com.workdo.ticketgo1"
              }
            }
          ]
        }
      }
    },
    {
      "client_info": {
        "mobilesdk_app_id": "1:585162138896:android:27482c345b7016bb5d3195",
        "android_client_info": {
          "package_name": "com.workdo.fashion1"
        }
      },
      "oauth_client": [
        {
          "client_id": "585162138896-1hv0mon6vurnfg5ki19job98r27kvfns.apps.googleusercontent.com",
          "client_type": 1,
          "android_info": {
            "package_name": "com.workdo.fashion1",
            "certificate_hash": "a6d77c1bb0ed6547f2bb006df727a96e0c2d3c55"
          }
        },
        {
          "client_id": "585162138896-p7123uv01joqhrdmdpkkp616voosejio.apps.googleusercontent.com",
          "client_type": 3
        }
      ],
      "api_key": [
        {
          "current_key": "AIzaSyDHFJXOn3hNxG8k8GyGIRHSJv89EAV1es0"
        }
      ],
      "services": {
        "appinvite_service": {
          "other_platform_oauth_client": [
            {
              "client_id": "585162138896-p7123uv01joqhrdmdpkkp616voosejio.apps.googleusercontent.com",
              "client_type": 3
            },
            {
              "client_id": "585162138896-0s7a2kar4i6jnqdo06b24kfamn1uhrfk.apps.googleusercontent.com",
              "client_type": 2,
              "ios_info": {
                "bundle_id": "com.workdo.ticketgo1"
              }
            }
          ]
        }
      }
    }
  ],
  "configuration_version": "1"
}